…
```r
day_mean<-summarise(.data = data,means= mean(steps,na.rm = TRUE))
day_median<- summarise(.data = data,median = median(steps,na.rm = TRUE))
```

```r
#Mean steps per day
day_mean
```

```
## # A tibble: 61 x 2
##    date         means
##    <date>       <dbl>
##  1 2012-10-01 NaN    
##  2 2012-10-02   0.438
##  3 2012-10-03  39.4  
##  4 2012-10-04  42.1  
##  5 2012-10-05  46.2  
##  6 2012-10-06  53.5  
##  7 2012-10-07  38.2  
##  8 2012-10-08 NaN    
##  9 2012-10-09  44.5  
## 10 2012-10-10  34.4  
## # ... with 51 more rows
```

```r
#median steps per day
day_median
```

```
## # A tibble: 61 x 2
##    date       median
##    <date>      <dbl>
##  1 2012-10-01     NA
##  2 2012-10-02      0
##  3 2012-10-03      0
##  4 2012-10-04      0
##  5 2012-10-05      0
##  6 2012-10-06      0
##  7 2012-10-07      0
##  8 2012-10-08     NA
##  9 2012-10-09      0
## 10 2012-10-10      0
## # ... with 51 more rows
```
…
```r
new_day_mean<-summarise(.data = new_dataset,means= mean(steps,na.rm = TRUE))
new_day_median<- summarise(.data = new_dataset,median = median(steps,na.rm = TRUE))
new_day_mean
```

```
## # A tibble: 61 x 2
##    date        means
##    <date>      <dbl>
##  1 2012-10-01 37.4  
##  2 2012-10-02  0.438
##  3 2012-10-03 39.4  
##  4 2012-10-04 42.1  
##  5 2012-10-05 46.2  
##  6 2012-10-06 53.5  
##  7 2012-10-07 38.2  
##  8 2012-10-08 37.4  
##  9 2012-10-09 44.5  
## 10 2012-10-10 34.4  
## # ... with 51 more rows
```

```r
new_day_median
```

```
## # A tibble: 61 x 2
##    date       median
##    <date>      <dbl>
##  1 2012-10-01   34.5
##  2 2012-10-02    0  
##  3 2012-10-03    0  
##  4 2012-10-04    0  
##  5 2012-10-05    0  
##  6 2012-10-06    0  
##  7 2012-10-07    0  
##  8 2012-10-08   34.5
##  9 2012-10-09    0  
## 10 2012-10-10    0  
## # ... with 51 more rows
```
…
